{
	"name": "Label Vier Extras",
	"version": "1.13.0",
	"download_url": "http://updater.labelvier.nl/wp-starter-kit/labelvier.zip",
	"homepage": "https://labelvier.nl",
	"author": "Label Vier",
	"sections": {
		"description": "Optimisations for the current wordpress theme.",
		"changelog": "Latest updates for the label vier extras plugin."
	}
}
